urxvt*foreground: #4a4e4f
urxvt*background: #11172a
!black
urxvt*color0: #11172a
urxvt*color8: #4a4e4f
!red
urxvt*color1: #c68685
urxvt*color9: #d55e67
!green
urxvt*color2: #8a8d76
urxvt*color10: #2cc97d
!yellow
urxvt*color3: #9f9a8a
urxvt*color11: #d9742d
!blue
urxvt*color4: #7fa1ba
urxvt*color12: #4a76ff
!magenta
urxvt*color5: #9f7bbb
urxvt*color13: #7a66ff
!cyan
urxvt*color6: #6d918e
urxvt*color14: #23cdd0
!white
urxvt*color7: #e0dfdd
urxvt*color15: #fcfbf7
